[{
	"logo": "https://cdn.freebiesupply.com/logos/large/2x/sports-logo-png-transparent.png",
	"name": "Sports Premium",
	"sname": "All Sports Channels",
	"ssname": "Indian + WorldWide",
	"streaming": [{
			"age": "Hotstar;in.startv.hotstar/8.1.6 (Linux;Android 5.0.1) ExoPlayerLib/2.9.5",
			"cardl": 300,
			"cardw": 350,
			"category": 5,
			"channel_id": 155,
			"drm": true,
			"hd": false,
			"icon": "http://sgdccdnems03.cdnsrv.jio.com/gdcsite.cdnsrv.jio.com/jiotv.catchup.cdn.jio.com/dare_images/images/Star_Sports_HD_1.png",
			"imgh": 250,
			"imgw": 192,
			"isHD": false,
			"language": 1,
			"lic": false,
			"link": "http://hotstar.live.cdn.jio.com/hotstar_isl/sshd1livetvwv/master.mpd?hdnea=st=1574261283~exp=1574264883~acl=/*~hmac=93769339d14aadbaf6a1922fcdb0ba86a5a55dca6c96cebc8343b9999a9395ca",
			"linkp": "https://ipl.service.expressplay.com/hms/wv/rights/?ExpressPlayToken=BQAAABNlKeIAAAAAAGCsgDiHYP72Tcv_BxpdXNZ48Ch2SXCKYMpB-bqZRY2WZyZTrcJ1iY5Ot2Q0x6mtjCIUY8GonG2Zwanc81CXrTMIHIksqC_YRrLOnRrGCyi1MhHJiLyhu-HBP_spzCrk3X_sTQGO-0LaaLnCcncV2_xCS_cYzA",
			"live": false,
			"name": "Star Sports 1(DRM)",
			"tok": "widevine",
			"tokj": "hello",
			"trigger": false,
			"z": false,
			"zee": false
		},
		{
			"age": "Hotstar;in.startv.hotstar/8.1.6 (Linux;Android 5.0.1) ExoPlayerLib/2.9.5",
			"cardl": 300,
			"cardw": 350,
			"category": 5,
			"channel_id": 155,
			"drm": true,
			"hd": false,
			"icon": "http://sgdccdnems03.cdnsrv.jio.com/gdcsite.cdnsrv.jio.com/jiotv.catchup.cdn.jio.com/dare_images/images/Star_Sports_HD_2.png",
			"imgh": 250,
			"imgw": 192,
			"isHD": false,
			"language": 1,
			"lic": false,
			"link": "http://hotstar.live.cdn.jio.com/hotstar_isl/sshd2livetvwv/master.mpd?hdnea=st=1574261468~exp=1574265068~acl=/*~hmac=3b0b37c94b795b78d4ce1bb01d8f5cea1045e506c0a52616f8891ec50395966d",
			"linkp": "https://ipl.service.expressplay.com/hms/wv/rights/?ExpressPlayToken=BQAAABNlKd8AAAAAAGABtAEqSDLKGV3ubDaR48aJEGdDqTIjuElkyiiLb_XpM37tJ8tfhMFKbJk3WhQ7kyNU0nbP57Bg2LQBZ--JcITKIwu7S7cSaEBnDWiYkbatuex_rpskHgrMF1hPPSaJNF5NVBrUafheY8QStSHiKHsTDN0X2w",
			"live": false,
			"name": "Star Sports 2(DRM)",
			"tok": "widevine",
			"tokj": "hello",
			"trigger": false,
			"z": false,
			"zee": false
		},
		{
			"age": "Hotstar;in.startv.hotstar/8.1.6 (Linux;Android 5.0.1) ExoPlayerLib/2.9.5",
			"cardl": 300,
			"cardw": 350,
			"category": 5,
			"channel_id": 155,
			"drm": true,
			"hd": false,
			"icon": "http://sgdccdnems03.cdnsrv.jio.com/gdcsite.cdnsrv.jio.com/jiotv.catchup.cdn.jio.com/dare_images/images/Star_Sports_3.png",
			"imgh": 250,
			"imgw": 192,
			"isHD": false,
			"language": 1,
			"lic": false,
			"link": "http://hotstar.live.cdn.jio.com/hotstar_isl/sshindiwv/master.mpd?hdnea=st=1568533506~exp=1568537106~acl=/*~hmac=40f7dcb1c106ab5ca9b1156d94ea3683ab8bceb69a4e43e49af89f4e0a8d539b",
			"linkp": "https://ipl.service.expressplay.com/hms/wv/rights/?ExpressPlayToken=BQAAABNlKeIAAAAAAGCsgDiHYP72Tcv_BxpdXNZ48Ch2SXCKYMpB-bqZRY2WZyZTrcJ1iY5Ot2Q0x6mtjCIUY8GonG2Zwanc81CXrTMIHIksqC_YRrLOnRrGCyi1MhHJiLyhu-HBP_spzCrk3X_sTQGO-0LaaLnCcncV2_xCS_cYzA",
			"live": false,
			"name": "Star Sports 1 Hindi (DRM)",
			"tok": "widevine",
			"tokj": "hello",
			"trigger": false,
			"z": false,
			"zee": false
		},
		{
			"age": "Hotstar;in.startv.hotstar/8.1.6 (Linux;Android 5.0.1) ExoPlayerLib/2.9.5",
			"cardl": 300,
			"cardw": 350,
			"category": 5,
			"channel_id": 155,
			"drm": true,
			"hd": false,
			"icon": "http://sgdccdnems03.cdnsrv.jio.com/gdcsite.cdnsrv.jio.com/jiotv.catchup.cdn.jio.com/dare_images/images/Star_Sports_Select_HD_1.png",
			"imgh": 250,
			"imgw": 192,
			"isHD": false,
			"language": 1,
			"lic": false,
			"link": "http://hotstar.live.cdn.jio.com/hotstar_isl/ssselecthd1wv/master.mpd?hdnea=st=1574261603~exp=1574265203~acl=/*~hmac=84d3862e83be393738eebb5fb7844420679dde34ad7d39ff7b223fca6e6aa983",
			"linkp": "https://ipl.service.expressplay.com/hms/wv/rights/?ExpressPlayToken=BQAAABNlKfMAAAAAAGBN8RrJ62OJEuZz3VkdGWmAx2EYFYUpby2dCYoZXQc7QCw8spOPwVLhkzrmsNVoaDtpqP6jF3TZz5dzwch58qfi8lNe-zfTOVmSCs79mQbmdBMO8DTkN_0qYFeGSp5BhoHgpnVHxIxyoi93jcY5UIV1bhGtEw&req_id=3b1c5d87",
			"live": false,
			"name": "Star Sports Select 1",
			"tok": "widevine",
			"tokj": "hello",
			"trigger": false,
			"z": false,
			"zee": false
		},
		{
			"age": "Hotstar;in.startv.hotstar/8.1.6 (Linux;Android 5.0.1) ExoPlayerLib/2.9.5",
			"cardl": 300,
			"cardw": 350,
			"category": 8,
			"channel_id": 155,
			"drm": true,
			"hd": false,
			"icon": "http://sgdccdnems03.cdnsrv.jio.com/gdcsite.cdnsrv.jio.com/jiotv.catchup.cdn.jio.com/dare_images/images/Star_Sports_Select_HD_2.png",
			"imgh": 250,
			"imgw": 192,
			"isHD": false,
			"language": 6,
			"lic": false,
			"link": "http://hotstar.live.cdn.jio.com/hotstar_isl/ssselecthd2wv/master.mpd?hdnea=st=1574261831~exp=1574265431~acl=/*~hmac=a2584c0b9ff135c396114c3bb2e804756dfb3dd0e68ca7b446775f10d9efb91e",
			"linkp": "https://ipl.service.expressplay.com/hms/wv/rights/?ExpressPlayToken=BQAAABNlKb8AAAAAAGCLD5sOoNdXgibdtuqMXXDcwNpVR5JeSwut0mJZIgfQScpDkNnH-5IR8CeD--V4SOcw74VNdal7mTSNZgztkCdzXX2zv0krULF5PUTZdLDNmYIX44aVdIevUMn3LzGocwkPmJnfh5JAfTlegPbE5UChr-8p3g",
			"live": false,
			"name": "Star Sports Select 2",
			"tok": "widevine",
			"tokj": "hello",
			"trigger": false,
			"z": false,
			"zee": false
		},
		{
			"age": "Mozilla/5.0 (Linux; Android 5.0.1; HTC One_M8) AppleWebKit/537.36 (KHTML, like Gecko) Chrome/72.0.3626.76 Mobile Safari/537.36",
			"cardl": 300,
			"cardw": 450,
			"category": 5,
			"channel_id": 155,
			"drm": false,
			"hd": false,
			"icon": "http://httpsony-a.akamaihd.net/5182475815001/5182475815001_6026092787001_6025568720001-th.jpg?pubId=5182475815001&videoId=6025568720001",
			"imgh": 219,
			"imgw": 450,
			"isHD": false,
			"language": 1,
			"lic": false,
			"link": "https://www.oreotv.website/live/sony/liv.m3u8?live=6025568720001",
			"linkp": "a",
			"live": false,
			"name": "Sony Six SD",
			"tok": "widevine",
			"tokj": "hello",
			"trigger": false,
			"z": false,
			"zee": false
		},
		{
			"age": "Mozilla/5.0 (Linux; Android 5.0.1; HTC One_M8) AppleWebKit/537.36 (KHTML, like Gecko) Chrome/72.0.3626.76 Mobile Safari/537.36",
			"cardl": 300,
			"cardw": 450,
			"category": 5,
			"channel_id": 155,
			"drm": false,
			"hd": false,
			"icon": "http://httpsony-a.akamaihd.net/5182475815001/5182475815001_6025614847001_6025459316001-th.jpg?pubId=5182475815001&videoId=6025459316001",
			"imgh": 219,
			"imgw": 450,
			"isHD": false,
			"language": 1,
			"lic": false,
			"link": "https://www.oreotv.website/live/sony/liv.m3u8?live=6025459316001",
			"linkp": "a",
			"live": false,
			"name": "Sony SIX HD",
			"tok": "widevine",
			"tokj": "hello",
			"trigger": false,
			"z": false,
			"zee": false
		},
		{
			"age": "Mozilla/5.0 (Linux; Android 5.0.1; HTC One_M8) AppleWebKit/537.36 (KHTML, like Gecko) Chrome/72.0.3626.76 Mobile Safari/537.36",
			"cardl": 300,
			"cardw": 450,
			"category": 5,
			"channel_id": 155,
			"drm": false,
			"hd": false,
			"icon": "http://httpsony-a.akamaihd.net/5182475815001/5182475815001_6026092806001_6025571244001-th.jpg?pubId=5182475815001&videoId=6025571244001",
			"imgh": 219,
			"imgw": 450,
			"isHD": false,
			"language": 1,
			"lic": false,
			"link": "https://www.oreotv.website/live/sony/liv.m3u8?live=6025571244001",
			"linkp": "a",
			"live": false,
			"name": "Sony TEN 1 SD",
			"tok": "widevine",
			"tokj": "hello",
			"trigger": false,
			"z": false,
			"zee": false
		},
		{
			"age": "Mozilla/5.0 (Linux; Android 5.0.1; HTC One_M8) AppleWebKit/537.36 (KHTML, like Gecko) Chrome/72.0.3626.76 Mobile Safari/537.36",
			"cardl": 300,
			"cardw": 450,
			"category": 5,
			"channel_id": 155,
			"drm": false,
			"hd": false,
			"icon": "http://httpsony-a.akamaihd.net/5182475815001/5182475815001_6025581544001_6025460795001-th.jpg?pubId=5182475815001&videoId=6025460795001",
			"imgh": 219,
			"imgw": 450,
			"isHD": false,
			"language": 1,
			"lic": false,
			"link": "https://www.oreotv.website/live/sony/liv.m3u8?live=6025460795001",
			"linkp": "a",
			"live": false,
			"name": "Sony TEN 1 HD",
			"tok": "widevine",
			"tokj": "hello",
			"trigger": false,
			"z": false,
			"zee": false
		},
		{
			"age": "Mozilla/5.0 (Linux; Android 5.0.1; HTC One_M8) AppleWebKit/537.36 (KHTML, like Gecko) Chrome/72.0.3626.76 Mobile Safari/537.36",
			"cardl": 300,
			"cardw": 450,
			"category": 5,
			"channel_id": 155,
			"drm": false,
			"hd": false,
			"icon": "http://httpsony-a.akamaihd.net/5182475815001/5182475815001_6026092824001_6025568059001-th.jpg?pubId=5182475815001&videoId=6025568059001",
			"imgh": 219,
			"imgw": 450,
			"isHD": false,
			"language": 1,
			"lic": false,
			"link": "https://www.oreotv.website/live/sony/liv.m3u8?live=6025568059001",
			"linkp": "a",
			"live": false,
			"name": "Sony TEN 2 SD",
			"tok": "widevine",
			"tokj": "hello",
			"trigger": false,
			"z": false,
			"zee": false
		},
		{
			"age": "Mozilla/5.0 (Linux; Android 5.0.1; HTC One_M8) AppleWebKit/537.36 (KHTML, like Gecko) Chrome/72.0.3626.76 Mobile Safari/537.36",
			"cardl": 300,
			"cardw": 450,
			"category": 5,
			"channel_id": 155,
			"drm": false,
			"hd": false,
			"icon": "http://httpsony-a.akamaihd.net/5182475815001/5182475815001_6025608915001_6025460814001-th.jpg?pubId=5182475815001&videoId=6025460814001",
			"imgh": 219,
			"imgw": 450,
			"isHD": false,
			"language": 1,
			"lic": false,
			"link": "https://www.oreotv.website/live/sony/liv.m3u8?live=6025460814001",
			"linkp": "a",
			"live": false,
			"name": "Sony TEN 2 HD",
			"tok": "widevine",
			"tokj": "hello",
			"trigger": false,
			"z": false,
			"zee": false
		},
		{
			"age": "Mozilla/5.0 (Linux; Android 5.0.1; HTC One_M8) AppleWebKit/537.36 (KHTML, like Gecko) Chrome/72.0.3626.76 Mobile Safari/537.36",
			"cardl": 300,
			"cardw": 450,
			"category": 5,
			"channel_id": 155,
			"drm": false,
			"hd": false,
			"icon": "http://httpsony-a.akamaihd.net/5182475815001/5182475815001_6026092825001_6025575368001-th.jpg?pubId=5182475815001&videoId=6025575368001",
			"imgh": 219,
			"imgw": 450,
			"isHD": false,
			"language": 1,
			"lic": false,
			"link": "https://www.oreotv.website/live/sony/liv.m3u8?live=6025575368001",
			"linkp": "a",
			"live": false,
			"name": "Sony TEN 3 SD",
			"tok": "widevine",
			"tokj": "hello",
			"trigger": false,
			"z": false,
			"zee": false
		},
		{
			"age": "Mozilla/5.0 (Linux; Android 5.0.1; HTC One_M8) AppleWebKit/537.36 (KHTML, like Gecko) Chrome/72.0.3626.76 Mobile Safari/537.36",
			"cardl": 300,
			"cardw": 450,
			"category": 5,
			"channel_id": 155,
			"drm": false,
			"hd": false,
			"icon": "http://httpsony-a.akamaihd.net/5182475815001/5182475815001_6025606448001_6025462985001-th.jpg?pubId=5182475815001&videoId=6025462985001",
			"imgh": 219,
			"imgw": 450,
			"isHD": false,
			"language": 1,
			"lic": false,
			"link": "https://www.oreotv.website/live/sony/liv.m3u8?live=6025462985001",
			"linkp": "a",
			"live": false,
			"name": "Sony TEN 3 HD",
			"tok": "widevine",
			"tokj": "hello",
			"trigger": false,
			"z": false,
			"zee": false
		},
		{
			"age": "tv.accedo.airtel.wynk/1.18.4 (Linux;Android 10) ExoPlayerLib/2.9.6",
			"cardl": 300,
			"cardw": 350,
			"category": 5,
			"channel_id": 525,
			"drm": true,
			"hd": false,
			"icon": "http://cdn.startimestv.com/banner/legacy/c_-2080553815.png",
			"imgh": 250,
			"imgw": 192,
			"isHD": true,
			"language": 1,
			"lic": false,
			"link": "http://cloudfront-video.gslb.startimestv.com/live/ST_WORLD_FOOTBALL_HD_1020_1000_640x480_305754/playlist.m3u8",
			"linkp": "abc",
			"live": false,
			"name": "ST WORLD FOOTBALL HD",
			"tok": "widevine",
			"tokj": "thoptv",
			"trigger": false,
			"z": true,
			"zee": false
		},
		{
			"age": "tv.accedo.airtel.wynk/1.18.4 (Linux;Android 10) ExoPlayerLib/2.9.6",
			"cardl": 300,
			"cardw": 350,
			"category": 5,
			"channel_id": 525,
			"drm": true,
			"hd": false,
			"icon": "http://cdn.startimestv.com/banner/legacy/c_-955113695.png",
			"imgh": 250,
			"imgw": 192,
			"isHD": true,
			"language": 1,
			"lic": false,
			"link": "http://cloudfront-video.gslb.startimestv.com/live/ST_SPORTS_FOCUS_UHD_1042_1000_640x480_306820/playlist.m3u8",
			"linkp": "abc",
			"live": false,
			"name": "ST SPORTS FOCUS",
			"tok": "widevine",
			"tokj": "thoptv",
			"trigger": false,
			"z": true,
			"zee": false
		},
		{
			"age": "tv.accedo.airtel.wynk/1.18.4 (Linux;Android 10) ExoPlayerLib/2.9.6",
			"cardl": 300,
			"cardw": 350,
			"category": 6,
			"channel_id": 525,
			"drm": true,
			"hd": false,
			"icon": "http://cdn.startimestv.com/banner/legacy/c_-1497572737.png",
			"imgh": 250,
			"imgw": 192,
			"isHD": true,
			"language": 9,
			"lic": false,
			"link": "http://cloudfront-video.gslb.startimestv.com/live/ST_SPORTS_PREMIUM_TEST_1022_1000_640x480_306418/playlist.m3u8",
			"linkp": "abc",
			"live": false,
			"name": "ST SPORTS PREMIUM",
			"tok": "widevine",
			"tokj": "thoptv",
			"trigger": false,
			"z": true,
			"zee": false
		},
		{
			"age": "tv.accedo.airtel.wynk/1.18.4 (Linux;Android 10) ExoPlayerLib/2.9.6",
			"cardl": 300,
			"cardw": 350,
			"category": 5,
			"channel_id": 525,
			"drm": true,
			"hd": false,
			"icon": "http://cdn.startimestv.com/banner/legacy/c_1802743986.png",
			"imgh": 250,
			"imgw": 192,
			"isHD": true,
			"language": 8,
			"lic": false,
			"link": "http://cloudfront-video.gslb.startimestv.com/live/ST_SPORTS_LIFE_UHD_1044_1000_640x480_306838/playlist.m3u8",
			"linkp": "abc",
			"live": false,
			"name": "ST SPORTS LIFE",
			"tok": "widevine",
			"tokj": "thoptv",
			"trigger": false,
			"z": true,
			"zee": false
		},
		{
			"age": "tv.accedo.airtel.wynk/1.18.4 (Linux;Android 10) ExoPlayerLib/2.9.6",
			"cardl": 300,
			"cardw": 350,
			"category": 6,
			"channel_id": 525,
			"drm": true,
			"hd": false,
			"icon": "http://cdn.startimestv.com/banner/legacy/c_455874997.png",
			"imgh": 250,
			"imgw": 192,
			"isHD": true,
			"language": 11,
			"lic": false,
			"link": "http://cloudfront-video.gslb.startimestv.com/live/ST_SPORTS_ARENA_UHD_1046_1000_640x480_306840/playlist.m3u8",
			"linkp": "abc",
			"live": false,
			"name": "ST SPORTS ARENA",
			"tok": "widevine",
			"tokj": "thoptv",
			"trigger": false,
			"z": true,
			"zee": false
		}, {
			"age": "Mozilla/5.0 (CrKey armv7l 1.4.15250) AppleWebKit/537.36 (KHTML, like Gecko) Chrome/31.0.1650.0 Safari/537.36",
			"cardl": 300,
			"cardw": 450,
			"category": 5,
			"channel_id": 155,
			"drm": false,
			"hd": false,
			"icon": "http://4um0zjf3ta-flywheel.netdna-ssl.com/wp-content/uploads/2015/02/1423850524_original.jpg",
			"imgh": 219,
			"imgw": 450,
			"isHD": false,
			"language": 1,
			"lic": false,
			"link": "http://oreotv.website/live/skyus/playsky.m3u8?title=BT%20Sport&stream=btsport1-hq",
			"linkp": "abc",
			"live": true,
			"name": "BT Sport 1",
			"tok": "widevine",
			"tokj": "hello",
			"trigger": false,
			"z": false,
			"zee": false
		}, {
			"age": "Mozilla/5.0 (CrKey armv7l 1.4.15250) AppleWebKit/537.36 (KHTML, like Gecko) Chrome/31.0.1650.0 Safari/537.36",
			"cardl": 300,
			"cardw": 450,
			"category": 5,
			"channel_id": 155,
			"drm": false,
			"hd": false,
			"icon": "https://i.imgur.com/mnbG9uN.png",
			"imgh": 219,
			"imgw": 450,
			"isHD": false,
			"language": 1,
			"lic": false,
			"link": "http://oreotv.website/live/skyus/playsky.m3u8?title=BT%20Sport&stream=btsport2-hq",
			"linkp": "abc",
			"live": true,
			"name": "BT Sport 2",
			"tok": "widevine",
			"tokj": "hello",
			"trigger": false,
			"z": false,
			"zee": false
		}, {
			"age": "Mozilla/5.0 (CrKey armv7l 1.4.15250) AppleWebKit/537.36 (KHTML, like Gecko) Chrome/31.0.1650.0 Safari/537.36",
			"cardl": 300,
			"cardw": 450,
			"category": 5,
			"channel_id": 155,
			"drm": false,
			"hd": false,
			"icon": "https://3.bp.blogspot.com/-7arl-HGiGeE/Ww__Oo_fvLI/AAAAAAAAGAk/44n5OBLFupYaGopEqwgHB2GK3Ly0Hr53gCLcBGAs/s1600/download%2B%25284%2529.png",
			"imgh": 219,
			"imgw": 450,
			"isHD": false,
			"language": 1,
			"lic": false,
			"link": "http://oreotv.website/live/skyus/playsky.m3u8?title=BT%20Sport&stream=btsport3-hq",
			"linkp": "abc",
			"live": true,
			"name": "BT Sport 3",
			"tok": "widevine",
			"tokj": "hello",
			"trigger": false,
			"z": false,
			"zee": false
		}, {
			"age": "Mozilla/5.0 (CrKey armv7l 1.4.15250) AppleWebKit/537.36 (KHTML, like Gecko) Chrome/31.0.1650.0 Safari/537.36",
			"cardl": 300,
			"cardw": 450,
			"category": 5,
			"channel_id": 155,
			"drm": false,
			"hd": false,
			"icon": "https://cdn.bein.net/us/wp-content/uploads/2017/01/beIN-SPORTS-H-Purple.png",
			"imgh": 219,
			"imgw": 450,
			"isHD": false,
			"language": 1,
			"lic": false,
			"link": "http://oreotv.website/live/skyus/playsky.m3u8?title=beIN%20Sports&stream=beinusa-hq",
			"linkp": "abc",
			"live": true,
			"name": "Bein Sports USA",
			"tok": "widevine",
			"tokj": "hello",
			"trigger": false,
			"z": false,
			"zee": false
		}, {
			"age": "Mozilla/5.0 (CrKey armv7l 1.4.15250) AppleWebKit/537.36 (KHTML, like Gecko) Chrome/31.0.1650.0 Safari/537.36",
			"cardl": 300,
			"cardw": 450,
			"category": 5,
			"channel_id": 155,
			"drm": false,
			"hd": false,
			"icon": "http://glo-star.com/Global/images//99596_11-HD.png",
			"imgh": 219,
			"imgw": 450,
			"isHD": false,
			"language": 1,
			"lic": false,
			"link": "http://oreotv.website/live/skyus/playsky.m3u8?title=beIN%20Sports&stream=bein11-hq",
			"linkp": "abc",
			"live": true,
			"name": "Bein Sports 11 English",
			"tok": "widevine",
			"tokj": "hello",
			"trigger": false,
			"z": false,
			"zee": false
		}, {
			"age": "Mozilla/5.0 (CrKey armv7l 1.4.15250) AppleWebKit/537.36 (KHTML, like Gecko) Chrome/31.0.1650.0 Safari/537.36",
			"cardl": 300,
			"cardw": 450,
			"category": 5,
			"channel_id": 155,
			"drm": false,
			"hd": false,
			"icon": "https://logoeps.com/wp-content/uploads/2012/10/eurosport-logo-vector.png",
			"imgh": 219,
			"imgw": 450,
			"isHD": false,
			"language": 1,
			"lic": false,
			"link": "http://oreotv.website/live/skyus/playsky.m3u8?title=Eurosport&stream=eurosport-hq",
			"linkp": "abc",
			"live": true,
			"name": "Eurosport",
			"tok": "widevine",
			"tokj": "hello",
			"trigger": false,
			"z": false,
			"zee": false
		}, {
			"age": "Mozilla/5.0 (CrKey armv7l 1.4.15250) AppleWebKit/537.36 (KHTML, like Gecko) Chrome/31.0.1650.0 Safari/537.36",
			"cardl": 300,
			"cardw": 450,
			"category": 5,
			"channel_id": 155,
			"drm": false,
			"hd": false,
			"icon": "http://www.logotypes101.com/logos/825/A7AFD72F770AD08E4304183DD4684728/eurosport2.png",
			"imgh": 219,
			"imgw": 450,
			"isHD": false,
			"language": 1,
			"lic": false,
			"link": "http://oreotv.website/live/skyus/playsky.m3u8?title=Eurosport&stream=eurosport2-hq",
			"linkp": "abc",
			"live": true,
			"name": "Eurosport 2",
			"tok": "widevine",
			"tokj": "hello",
			"trigger": false,
			"z": false,
			"zee": false
		}, {
			"age": "Mozilla/5.0 (CrKey armv7l 1.4.15250) AppleWebKit/537.36 (KHTML, like Gecko) Chrome/31.0.1650.0 Safari/537.36",
			"cardl": 300,
			"cardw": 450,
			"category": 5,
			"channel_id": 155,
			"drm": false,
			"hd": false,
			"icon": "https://www.airtv.net/images/logos/hindi/Willow-HD.png",
			"imgh": 219,
			"imgw": 450,
			"isHD": false,
			"language": 1,
			"lic": false,
			"link": "http://oreotv.website/live/skyus/playsky.m3u8?title=Willow%20TV&stream=willow-hq",
			"linkp": "abc",
			"live": true,
			"name": "Willow TV HD",
			"tok": "widevine",
			"tokj": "hello",
			"trigger": false,
			"z": false,
			"zee": false
		}, {
			"age": "Mozilla/5.0 (CrKey armv7l 1.4.15250) AppleWebKit/537.36 (KHTML, like Gecko) Chrome/31.0.1650.0 Safari/537.36",
			"cardl": 300,
			"cardw": 450,
			"category": 5,
			"channel_id": 155,
			"drm": false,
			"hd": false,
			"icon": "https://upload.wikimedia.org/wikipedia/commons/thumb/3/37/2015_Fox_Sports_1_logo.svg/640px-2015_Fox_Sports_1_logo.svg.png",
			"imgh": 219,
			"imgw": 450,
			"isHD": false,
			"language": 1,
			"lic": false,
			"link": "http://oreotv.website/live/skyus/playsky.m3u8?title=Fox%20Sports&stream=foxsports1-hq",
			"linkp": "abc",
			"live": true,
			"name": "Fox Sports 1",
			"tok": "widevine",
			"tokj": "hello",
			"trigger": false,
			"z": false,
			"zee": false
		}, {
			"age": "Mozilla/5.0 (CrKey armv7l 1.4.15250) AppleWebKit/537.36 (KHTML, like Gecko) Chrome/31.0.1650.0 Safari/537.36",
			"cardl": 300,
			"cardw": 450,
			"category": 5,
			"channel_id": 155,
			"drm": false,
			"hd": false,
			"icon": "https://upload.wikimedia.org/wikipedia/commons/thumb/3/38/FS2_logo_2015.svg/640px-FS2_logo_2015.svg.png",
			"imgh": 219,
			"imgw": 450,
			"isHD": false,
			"language": 1,
			"lic": false,
			"link": "http://oreotv.website/live/skyus/playsky.m3u8?title=Fox%20Sports&stream=foxsports2-hq",
			"linkp": "abc",
			"live": true,
			"name": "Fox Sports 2",
			"tok": "widevine",
			"tokj": "hello",
			"trigger": false,
			"z": false,
			"zee": false
		}, {
			"age": "Mozilla/5.0 (CrKey armv7l 1.4.15250) AppleWebKit/537.36 (KHTML, like Gecko) Chrome/31.0.1650.0 Safari/537.36",
			"cardl": 300,
			"cardw": 450,
			"category": 5,
			"channel_id": 155,
			"drm": false,
			"hd": false,
			"icon": "http://www.webtv.so/uploads/images/channel_146_1516259678_social.png",
			"imgh": 219,
			"imgw": 450,
			"isHD": false,
			"language": 1,
			"lic": false,
			"link": "http://oreotv.website/live/skyus/playsky.m3u8?title=Sky%20Sports&stream=skysports1-hq",
			"linkp": "abc",
			"live": true,
			"name": "Sky Sports MainEvent",
			"tok": "widevine",
			"tokj": "hello",
			"trigger": false,
			"z": false,
			"zee": false
		}, {
			"age": "Mozilla/5.0 (CrKey armv7l 1.4.15250) AppleWebKit/537.36 (KHTML, like Gecko) Chrome/31.0.1650.0 Safari/537.36",
			"cardl": 300,
			"cardw": 450,
			"category": 5,
			"channel_id": 155,
			"drm": false,
			"hd": false,
			"icon": "https://ia600808.us.archive.org/17/items/SkySportsPremierLeague_201708/sky%20sports%20premier%20league.png",
			"imgh": 219,
			"imgw": 450,
			"isHD": false,
			"language": 1,
			"lic": false,
			"link": "http://oreotv.website/live/skyus/playsky.m3u8?title=Sky%20Sports&stream=skysports5-hq",
			"linkp": "abc",
			"live": true,
			"name": "Sky Sports Premier League",
			"tok": "widevine",
			"tokj": "hello",
			"trigger": false,
			"z": false,
			"zee": false
		}, {
			"age": "Mozilla/5.0 (CrKey armv7l 1.4.15250) AppleWebKit/537.36 (KHTML, like Gecko) Chrome/31.0.1650.0 Safari/537.36",
			"cardl": 300,
			"cardw": 450,
			"category": 5,
			"channel_id": 155,
			"drm": false,
			"hd": false,
			"icon": "https://e3.365dm.com/tvlogos/channels/3838-Mobile-Logo.png",
			"imgh": 219,
			"imgw": 450,
			"isHD": false,
			"language": 1,
			"lic": false,
			"link": "http://oreotv.website/live/skyus/playsky.m3u8?title=Sky%20Sports&stream=skysportsfootball-hq",
			"linkp": "abc",
			"live": true,
			"name": "Sky Sports Football",
			"tok": "widevine",
			"tokj": "hello",
			"trigger": false,
			"z": false,
			"zee": false
		}, {
			"age": "Mozilla/5.0 (CrKey armv7l 1.4.15250) AppleWebKit/537.36 (KHTML, like Gecko) Chrome/31.0.1650.0 Safari/537.36",
			"cardl": 300,
			"cardw": 450,
			"category": 5,
			"channel_id": 155,
			"drm": false,
			"hd": false,
			"icon": "https://e3.365dm.com/tvlogos/channels/1302-Mobile-Logo.png",
			"imgh": 219,
			"imgw": 450,
			"isHD": false,
			"language": 1,
			"lic": false,
			"link": "http://oreotv.website/live/skyus/playsky.m3u8?title=Sky%20Sports&stream=skysports2-hq",
			"linkp": "abc",
			"live": true,
			"name": "Sky Sports Cricket",
			"tok": "widevine",
			"tokj": "hello",
			"trigger": false,
			"z": false,
			"zee": false
		}, {
			"age": "Mozilla/5.0 (CrKey armv7l 1.4.15250) AppleWebKit/537.36 (KHTML, like Gecko) Chrome/31.0.1650.0 Safari/537.36",
			"cardl": 300,
			"cardw": 450,
			"category": 5,
			"channel_id": 155,
			"drm": false,
			"hd": false,
			"icon": "https://e3.365dm.com/tvlogos/channels/1306-Mobile-Logo.png",
			"imgh": 219,
			"imgw": 450,
			"isHD": false,
			"language": 1,
			"lic": false,
			"link": "http://oreotv.website/live/skyus/playsky.m3u8?title=Sky%20Sports&stream=skysportsf1-hq",
			"linkp": "abc",
			"live": true,
			"name": "Sky Sports F1",
			"tok": "widevine",
			"tokj": "hello",
			"trigger": false,
			"z": false,
			"zee": false
		}, {
			"age": "Mozilla/5.0 (CrKey armv7l 1.4.15250) AppleWebKit/537.36 (KHTML, like Gecko) Chrome/31.0.1650.0 Safari/537.36",
			"cardl": 300,
			"cardw": 450,
			"category": 5,
			"channel_id": 155,
			"drm": false,
			"hd": false,
			"icon": "https://e3.365dm.com/tvlogos/channels/1322-Mobile-Logo.png",
			"imgh": 219,
			"imgw": 450,
			"isHD": false,
			"language": 1,
			"lic": false,
			"link": "http://oreotv.website/live/skyus/playsky.m3u8?title=Sky%20Sports&stream=skysports4-hq",
			"linkp": "abc",
			"live": true,
			"name": "Sky Sports Golf",
			"tok": "widevine",
			"tokj": "hello",
			"trigger": false,
			"z": false,
			"zee": false
		}, {
			"age": "Mozilla/5.0 (CrKey armv7l 1.4.15250) AppleWebKit/537.36 (KHTML, like Gecko) Chrome/31.0.1650.0 Safari/537.36",
			"cardl": 300,
			"cardw": 450,
			"category": 5,
			"channel_id": 155,
			"drm": false,
			"hd": false,
			"icon": "https://e3.365dm.com/tvlogos/channels/4091-Mobile-Logo.png",
			"imgh": 219,
			"imgw": 450,
			"isHD": false,
			"language": 1,
			"lic": false,
			"link": "http://oreotv.website/live/skyus/playsky.m3u8?title=Sky%20Sports&stream=skysportsmix-hq",
			"linkp": "abc",
			"live": true,
			"name": "Sky Sports MIX",
			"tok": "widevine",
			"tokj": "hello",
			"trigger": false,
			"z": false,
			"zee": false
		}, {
			"age": "Mozilla/5.0 (CrKey armv7l 1.4.15250) AppleWebKit/537.36 (KHTML, like Gecko) Chrome/31.0.1650.0 Safari/537.36",
			"cardl": 300,
			"cardw": 450,
			"category": 5,
			"channel_id": 155,
			"drm": false,
			"hd": false,
			"icon": "http://contact.sourcecable.ca/wp-content/uploads/2015/05/TSN1_CMYK.jpg",
			"imgh": 219,
			"imgw": 450,
			"isHD": false,
			"language": 1,
			"lic": false,
			"link": "http://oreotv.website/live/skyus/playsky.m3u8?title=TSN&stream=tsn-hq",
			"linkp": "abc",
			"live": true,
			"name": "TSN 1",
			"tok": "widevine",
			"tokj": "hello",
			"trigger": false,
			"z": false,
			"zee": false
		}, {
			"age": "Mozilla/5.0 (CrKey armv7l 1.4.15250) AppleWebKit/537.36 (KHTML, like Gecko) Chrome/31.0.1650.0 Safari/537.36",
			"cardl": 300,
			"cardw": 450,
			"category": 5,
			"channel_id": 155,
			"drm": false,
			"hd": false,
			"icon": "https://upload.wikimedia.org/wikipedia/en/thumb/d/d2/NBA_TV.svg/600px-NBA_TV.svg.png",
			"imgh": 219,
			"imgw": 450,
			"isHD": false,
			"language": 1,
			"lic": false,
			"link": "http://oreotv.website/live/skyus/playsky.m3u8?title=NBA%20TV&stream=nbatv-hq",
			"linkp": "abc",
			"live": true,
			"name": "NBA TV",
			"tok": "widevine",
			"tokj": "hello",
			"trigger": false,
			"z": false,
			"zee": false
		}, {
			"age": "Mozilla/5.0 (CrKey armv7l 1.4.15250) AppleWebKit/537.36 (KHTML, like Gecko) Chrome/31.0.1650.0 Safari/537.36",
			"cardl": 300,
			"cardw": 450,
			"category": 5,
			"channel_id": 155,
			"drm": false,
			"hd": false,
			"icon": "https://upload.wikimedia.org/wikipedia/en/thumb/8/8f/NFL_Network_logo.svg/640px-NFL_Network_logo.svg.png",
			"imgh": 219,
			"imgw": 450,
			"isHD": false,
			"language": 1,
			"lic": false,
			"link": "http://oreotv.website/live/skyus/playsky.m3u8?title=NFL%20Network&stream=nflnetwork-hq",
			"linkp": "abc",
			"live": true,
			"name": "NFL Network",
			"tok": "widevine",
			"tokj": "hello",
			"trigger": false,
			"z": false,
			"zee": false
		}, {
			"age": "Mozilla/5.0 (CrKey armv7l 1.4.15250) AppleWebKit/537.36 (KHTML, like Gecko) Chrome/31.0.1650.0 Safari/537.36",
			"cardl": 300,
			"cardw": 450,
			"category": 5,
			"channel_id": 155,
			"drm": false,
			"hd": false,
			"icon": "https://upload.wikimedia.org/wikipedia/commons/1/14/NHL_Network_2012.jpg",
			"imgh": 219,
			"imgw": 450,
			"isHD": false,
			"language": 1,
			"lic": false,
			"link": "http://oreotv.website/live/skyus/playsky.m3u8?title=NHL%20Network&stream=nhlnetwork-hq",
			"linkp": "abc",
			"live": true,
			"name": "NHL Network",
			"tok": "widevine",
			"tokj": "hello",
			"trigger": false,
			"z": false,
			"zee": false
		},{
        "age": "ExoPlayerDemo/2.10.5 (Linux;Android 5.0.1) ExoPlayerLib/2.10.5",
        "cardl": 300,
        "cardw": 350,
        "category": 5,
        "channel_id": 525,
        "drm": false,
        "hd": false,
        "icon": "https://img1.hotstarext.com/image/upload/f_auto,t_hcdl/sources/r1/cms/prod/7433/567433-h",
        "imgh": 250,
        "imgw": 192,
        "isHD": true,
        "language": 1,
        "lic": false,
        "link": "https://oreotv.website/live/usa/sports.m3u8?ch=star1hi",
        "linkp": "abc",
        "live": false,
        "name": "Star Sports hindi 1(sd)",
        "tok": "widevine",
        "tokj": "thoptv",
        "trigger": false,
        "z": false,
        "zee": false
    },
    {
        "age": "ExoPlayerDemo/2.10.5 (Linux;Android 5.0.1) ExoPlayerLib/2.10.5",
        "cardl": 300,
        "cardw": 350,
        "category": 5,
        "channel_id": 525,
        "drm": false,
        "hd": false,
        "icon": "http://smumcdnems01.cdnsrv.jio.com/mumsite.cdnsrv.jio.com/jiotv.catchup.cdn.jio.com/dare_images/images/Star_Sports_1.png",
        "imgh": 250,
        "imgw": 192,
        "isHD": true,
        "language": 1,
        "lic": false,
        "link": "https://oreotv.website/live/usa/sports.m3u8?ch=star1",
        "linkp": "abc",
        "live": false,
        "name": "Star Sports 1",
        "tok": "widevine",
        "tokj": "thoptv",
        "trigger": false,
        "z": false,
        "zee": false
    },
    {
        "age": "ExoPlayerDemo/2.10.5 (Linux;Android 5.0.1) ExoPlayerLib/2.10.5",
        "cardl": 300,
        "cardw": 350,
        "category": 5,
        "channel_id": 525,
        "drm": false,
        "hd": false,
        "icon": "https://upload.wikimedia.org/wikipedia/en/2/20/Sony_SIX_logo.png",
        "imgh": 250,
        "imgw": 192,
        "isHD": true,
        "language": 1,
        "lic": false,
        "link": "https://oreotv.website/live/usa/sports.m3u8?ch=sonysix",
        "linkp": "abc",
        "live": false,
        "name": "Sony Six",
        "tok": "widevine",
        "tokj": "thoptv",
        "trigger": false,
        "z": false,
        "zee": false
    },
    {
        "age": "ExoPlayerDemo/2.10.5 (Linux;Android 5.0.1) ExoPlayerLib/2.10.5",
        "cardl": 300,
        "cardw": 350,
        "category": 5,
        "channel_id": 525,
        "drm": false,
        "hd": false,
        "icon": "https://kccl.tv/sites/default/files/SEPN.png",
        "imgh": 250,
        "imgw": 192,
        "isHD": true,
        "language": 1,
        "lic": false,
        "link": "https://oreotv.website/live/usa/sports.m3u8?ch=sonymax",
        "linkp": "abc",
        "live": false,
        "name": "Sony ESPN",
        "tok": "widevine",
        "tokj": "thoptv",
        "trigger": false,
        "z": false,
        "zee": false
    },
    {
        "age": "ExoPlayerDemo/2.10.5 (Linux;Android 5.0.1) ExoPlayerLib/2.10.5",
        "cardl": 300,
        "cardw": 350,
        "category": 5,
        "channel_id": 525,
        "drm": false,
        "hd": false,
        "icon": "https://image.airtel.tv/MWTV/MWTV_LIVETVCHANNEL_437/PORTRAIT/2f95e2fC.png",
        "imgh": 250,
        "imgw": 192,
        "isHD": true,
        "language": 1,
        "lic": false,
        "link": "https://oreotv.website/live/usa/sports.m3u8?ch=yt3",
        "linkp": "abc",
        "live": false,
        "name": "Sony TEN 1",
        "tok": "widevine",
        "tokj": "thoptv",
        "trigger": false,
        "z": false,
        "zee": false
    },
    {
        "age": "ExoPlayerDemo/2.10.5 (Linux;Android 5.0.1) ExoPlayerLib/2.10.5",
        "cardl": 300,
        "cardw": 350,
        "category": 5,
        "channel_id": 525,
        "drm": false,
        "hd": false,
        "icon": "http://bdtv.live/cn/skymainevent.jpg",
        "imgh": 250,
        "imgw": 192,
        "isHD": true,
        "language": 1,
        "lic": false,
        "link": "https://oreotv.website/live/usa/sports.m3u8?ch=ss1",
        "linkp": "abc",
        "live": false,
        "name": "Sky Sports Mainevent",
        "tok": "widevine",
        "tokj": "thoptv",
        "trigger": false,
        "z": false,
        "zee": false
    },
    {
        "age": "ExoPlayerDemo/2.10.5 (Linux;Android 5.0.1) ExoPlayerLib/2.10.5",
        "cardl": 300,
        "cardw": 350,
        "category": 5,
        "channel_id": 525,
        "drm": false,
        "hd": false,
        "icon": "http://bdtv.live/cn/skycricket.jpg",
        "imgh": 250,
        "imgw": 192,
        "isHD": true,
        "language": 1,
        "lic": false,
        "link": "https://oreotv.website/live/usa/sports.m3u8?ch=ss2",
        "linkp": "abc",
        "live": false,
        "name": "Sky Sports Cricket",
        "tok": "widevine",
        "tokj": "thoptv",
        "trigger": false,
        "z": false,
        "zee": false
    },
    {
        "age": "ExoPlayerDemo/2.10.5 (Linux;Android 5.0.1) ExoPlayerLib/2.10.5",
        "cardl": 300,
        "cardw": 350,
        "category": 5,
        "channel_id": 525,
        "drm": false,
        "hd": false,
        "icon": "http://bdtv.live/cn/skyaction.jpg",
        "imgh": 250,
        "imgw": 192,
        "isHD": true,
        "language": 1,
        "lic": false,
        "link": "https://oreotv.website/live/usa/sports.m3u8?ch=ss3",
        "linkp": "abc",
        "live": false,
        "name": "Sky Sports Action",
        "tok": "widevine",
        "tokj": "thoptv",
        "trigger": false,
        "z": false,
        "zee": false
    },
    {
        "age": "ExoPlayerDemo/2.10.5 (Linux;Android 5.0.1) ExoPlayerLib/2.10.5",
        "cardl": 300,
        "cardw": 350,
        "category": 5,
        "channel_id": 525,
        "drm": false,
        "hd": false,
        "icon": "https://encrypted-tbn0.gstatic.com/images?q=tbn:ANd9GcTDG3Pw4bvL4Ts1WE0OPc_kmZK9f_ThH8XBQsEU9UY8_oPzd7vl",
        "imgh": 250,
        "imgw": 192,
        "isHD": true,
        "language": 1,
        "lic": false,
        "link": "https://oreotv.website/live/usa/sports.m3u8?ch=ss4",
        "linkp": "abc",
        "live": false,
        "name": "Sky Sports Golf",
        "tok": "widevine",
        "tokj": "thoptv",
        "trigger": false,
        "z": false,
        "zee": false
    },
    {
        "age": "ExoPlayerDemo/2.10.5 (Linux;Android 5.0.1) ExoPlayerLib/2.10.5",
        "cardl": 300,
        "cardw": 350,
        "category": 5,
        "channel_id": 525,
        "drm": false,
        "hd": false,
        "icon": "http://bdtv.live/cn/skypremierleague.jpg",
        "imgh": 250,
        "imgw": 192,
        "isHD": true,
        "language": 1,
        "lic": false,
        "link": "https://oreotv.website/live/usa/sports.m3u8?ch=ss5",
        "linkp": "abc",
        "live": false,
        "name": "Sky Sports Premiere League",
        "tok": "widevine",
        "tokj": "thoptv",
        "trigger": false,
        "z": false,
        "zee": false
    },
    {
        "age": "ExoPlayerDemo/2.10.5 (Linux;Android 5.0.1) ExoPlayerLib/2.10.5",
        "cardl": 300,
        "cardw": 350,
        "category": 5,
        "channel_id": 525,
        "drm": false,
        "hd": false,
        "icon": "http://amrbd.com/cn/skymix.jpg",
        "imgh": 250,
        "imgw": 192,
        "isHD": true,
        "language": 1,
        "lic": false,
        "link": "https://oreotv.website/live/usa/sports.m3u8?ch=ssmix",
        "linkp": "abc",
        "live": false,
        "name": "Sky Sports Mix",
        "tok": "widevine",
        "tokj": "thoptv",
        "trigger": false,
        "z": false,
        "zee": false
    },
    {
        "age": "ExoPlayerDemo/2.10.5 (Linux;Android 5.0.1) ExoPlayerLib/2.10.5",
        "cardl": 300,
        "cardw": 350,
        "category": 5,
        "channel_id": 525,
        "drm": false,
        "hd": false,
        "icon": "http://bdtv.live/cn/skyfootball.jpg",
        "imgh": 250,
        "imgw": 192,
        "isHD": true,
        "language": 1,
        "lic": false,
        "link": "https://oreotv.website/live/usa/sports.m3u8?ch=ssfot",
        "linkp": "abc",
        "live": false,
        "name": "Sky Sports Football",
        "tok": "widevine",
        "tokj": "thoptv",
        "trigger": false,
        "z": false,
        "zee": false
    },
    {
        "age": "ExoPlayerDemo/2.10.5 (Linux;Android 5.0.1) ExoPlayerLib/2.10.5",
        "cardl": 300,
        "cardw": 350,
        "category": 5,
        "channel_id": 525,
        "drm": false,
        "hd": false,
        "icon": "https://d24j9r7lck9cin.cloudfront.net/l/f/1/1514.1500468425.png",
        "imgh": 250,
        "imgw": 192,
        "isHD": true,
        "language": 1,
        "lic": false,
        "link": "https://oreotv.website/live/usa/sports.m3u8?ch=ssf1",
        "linkp": "abc",
        "live": false,
        "name": "Sky Sports F1",
        "tok": "widevine",
        "tokj": "thoptv",
        "trigger": false,
        "z": false,
        "zee": false
    },
    {
        "age": "ExoPlayerDemo/2.10.5 (Linux;Android 5.0.1) ExoPlayerLib/2.10.5",
        "cardl": 300,
        "cardw": 350,
        "category": 5,
        "channel_id": 525,
        "drm": false,
        "hd": false,
        "icon": "https://www.eir.ie/opencms/export/sites/default/.galleries/eir/tv/logos/skysports/skysportsarena_130x130.png",
        "imgh": 250,
        "imgw": 192,
        "isHD": true,
        "language": 1,
        "lic": false,
        "link": "https://oreotv.website/live/usa/sports.m3u8?ch=ssare",
        "linkp": "abc",
        "live": false,
        "name": "Sky Sports Arena",
        "tok": "widevine",
        "tokj": "thoptv",
        "trigger": false,
        "z": false,
        "zee": false
    },
    {
        "age": "ExoPlayerDemo/2.10.5 (Linux;Android 5.0.1) ExoPlayerLib/2.10.5",
        "cardl": 300,
        "cardw": 350,
        "category": 5,
        "channel_id": 525,
        "drm": false,
        "hd": false,
        "icon": "https://encrypted-tbn0.gstatic.com/images?q=tbn:ANd9GcQoofCaesG_ZbiP1pAChN1hTumai-6l_MpfPwpAS3Z_8Xy8VlHy",
        "imgh": 250,
        "imgw": 192,
        "isHD": true,
        "language": 1,
        "lic": false,
        "link": "https://oreotv.website/live/usa/sports.m3u8?ch=ssnews",
        "linkp": "abc",
        "live": false,
        "name": "Sky Sports News",
        "tok": "widevine",
        "tokj": "thoptv",
        "trigger": false,
        "z": false,
        "zee": false
    },
    {
        "age": "ExoPlayerDemo/2.10.5 (Linux;Android 5.0.1) ExoPlayerLib/2.10.5",
        "cardl": 300,
        "cardw": 350,
        "category": 5,
        "channel_id": 525,
        "drm": false,
        "hd": false,
        "icon": "http://bdtv.live/cn/btsports1.jpg",
        "imgh": 250,
        "imgw": 192,
        "isHD": true,
        "language": 1,
        "lic": false,
        "link": "https://oreotv.website/live/usa/sports.m3u8?ch=bt1",
        "linkp": "abc",
        "live": false,
        "name": "BT Sports 1",
        "tok": "widevine",
        "tokj": "thoptv",
        "trigger": false,
        "z": false,
        "zee": false
    },
    {
        "age": "ExoPlayerDemo/2.10.5 (Linux;Android 5.0.1) ExoPlayerLib/2.10.5",
        "cardl": 300,
        "cardw": 350,
        "category": 5,
        "channel_id": 525,
        "drm": false,
        "hd": false,
        "icon": "http://bdtv.live/cn/btsports2.jpg",
        "imgh": 250,
        "imgw": 192,
        "isHD": true,
        "language": 1,
        "lic": false,
        "link": "https://oreotv.website/live/usa/sports.m3u8?ch=bt2",
        "linkp": "abc",
        "live": false,
        "name": "BT Sports 2",
        "tok": "widevine",
        "tokj": "thoptv",
        "trigger": false,
        "z": false,
        "zee": false
    },
    {
        "age": "ExoPlayerDemo/2.10.5 (Linux;Android 5.0.1) ExoPlayerLib/2.10.5",
        "cardl": 300,
        "cardw": 350,
        "category": 5,
        "channel_id": 525,
        "drm": false,
        "hd": false,
        "icon": "http://bdtv.live/cn/btsports3.jpg",
        "imgh": 250,
        "imgw": 192,
        "isHD": true,
        "language": 1,
        "lic": false,
        "link": "https://oreotv.website/live/usa/sports.m3u8?ch=bt3",
        "linkp": "abc",
        "live": false,
        "name": "BT Sports 3",
        "tok": "widevine",
        "tokj": "thoptv",
        "trigger": false,
        "z": false,
        "zee": false
    },
    {
        "age": "ExoPlayerDemo/2.10.5 (Linux;Android 5.0.1) ExoPlayerLib/2.10.5",
        "cardl": 300,
        "cardw": 350,
        "category": 5,
        "channel_id": 525,
        "drm": false,
        "hd": false,
        "icon": "https://d24j9r7lck9cin.cloudfront.net/l/o/1/1491.1436396789.png",
        "imgh": 250,
        "imgw": 192,
        "isHD": true,
        "language": 1,
        "lic": false,
        "link": "https://oreotv.website/live/usa/sports.m3u8?ch=btespn",
        "linkp": "abc",
        "live": false,
        "name": "BT ESPN",
        "tok": "widevine",
        "tokj": "thoptv",
        "trigger": false,
        "z": false,
        "zee": false
    },
    {
        "age": "ExoPlayerDemo/2.10.5 (Linux;Android 5.0.1) ExoPlayerLib/2.10.5",
        "cardl": 300,
        "cardw": 350,
        "category": 5,
        "channel_id": 525,
        "drm": false,
        "hd": false,
        "icon": "http://allfootballvideo.com/images/channel-logo/eurosp1.jpg",
        "imgh": 250,
        "imgw": 192,
        "isHD": true,
        "language": 1,
        "lic": false,
        "link": "https://oreotv.website/live/usa/sports.m3u8?ch=euro1",
        "linkp": "abc",
        "live": false,
        "name": "Euro Sports 1",
        "tok": "widevine",
        "tokj": "thoptv",
        "trigger": false,
        "z": false,
        "zee": false
    },
    {
        "age": "ExoPlayerDemo/2.10.5 (Linux;Android 5.0.1) ExoPlayerLib/2.10.5",
        "cardl": 300,
        "cardw": 350,
        "category": 5,
        "channel_id": 525,
        "drm": false,
        "hd": false,
        "icon": "http://amrbd.com/cn/eurosports2.jpg",
        "imgh": 250,
        "imgw": 192,
        "isHD": true,
        "language": 1,
        "lic": false,
        "link": "https://oreotv.website/live/usa/sports.m3u8?ch=euro2",
        "linkp": "abc",
        "live": false,
        "name": "Euro Sports 2",
        "tok": "widevine",
        "tokj": "thoptv",
        "trigger": false,
        "z": false,
        "zee": false
    },
    {
        "age": "ExoPlayerDemo/2.10.5 (Linux;Android 5.0.1) ExoPlayerLib/2.10.5",
        "cardl": 300,
        "cardw": 350,
        "category": 5,
        "channel_id": 525,
        "drm": false,
        "hd": false,
        "icon": "http://bdtv.live/cn/tensports.jpg",
        "imgh": 250,
        "imgw": 192,
        "isHD": true,
        "language": 1,
        "lic": false,
        "link": "https://oreotv.website/live/usa/sports.m3u8?ch=tensp",
        "linkp": "abc",
        "live": false,
        "name": "Ten Sports",
        "tok": "widevine",
        "tokj": "thoptv",
        "trigger": false,
        "z": false,
        "zee": false
    },
    {
        "age": "ExoPlayerDemo/2.10.5 (Linux;Android 5.0.1) ExoPlayerLib/2.10.5",
        "cardl": 300,
        "cardw": 350,
        "category": 5,
        "channel_id": 525,
        "drm": false,
        "hd": false,
        "icon": "https://www.freepnglogos.com/uploads/wwe-network-logo-0.png",
        "imgh": 250,
        "imgw": 192,
        "isHD": true,
        "language": 1,
        "lic": false,
        "link": "https://oreotv.website/live/usa/sports.m3u8?ch=wwenet",
        "linkp": "abc",
        "live": false,
        "name": "WWE Network",
        "tok": "widevine",
        "tokj": "thoptv",
        "trigger": false,
        "z": false,
        "zee": false
    },
    {
        "age": "ExoPlayerDemo/2.10.5 (Linux;Android 5.0.1) ExoPlayerLib/2.10.5",
        "cardl": 300,
        "cardw": 350,
        "category": 5,
        "channel_id": 525,
        "drm": false,
        "hd": false,
        "icon": "http://bdtv.live/cn/ptvsports.jpg",
        "imgh": 250,
        "imgw": 192,
        "isHD": true,
        "language": 1,
        "lic": false,
        "link": "https://oreotv.website/live/usa/sports.m3u8?ch=ptv",
        "linkp": "abc",
        "live": false,
        "name": "PTV Sports",
        "tok": "widevine",
        "tokj": "thoptv",
        "trigger": false,
        "z": false,
        "zee": false
    },
    {
        "age": "ExoPlayerDemo/2.10.5 (Linux;Android 5.0.1) ExoPlayerLib/2.10.5",
        "cardl": 300,
        "cardw": 350,
        "category": 5,
        "channel_id": 525,
        "drm": false,
        "hd": false,
        "icon": "https://www.premiersports.com/assets/components/mor/General/img/premier-sports-1-tab-logo.png",
        "imgh": 250,
        "imgw": 192,
        "isHD": true,
        "language": 1,
        "lic": false,
        "link": "https://oreotv.website/live/usa/sports.m3u8?ch=premier",
        "linkp": "abc",
        "live": false,
        "name": "Premier Sports 1 UK",
        "tok": "widevine",
        "tokj": "thoptv",
        "trigger": false,
        "z": false,
        "zee": false
    },
    {
        "age": "ExoPlayerDemo/2.10.5 (Linux;Android 5.0.1) ExoPlayerLib/2.10.5",
        "cardl": 300,
        "cardw": 350,
        "category": 5,
        "channel_id": 525,
        "drm": false,
        "hd": false,
        "icon": "https://www.fibreop.ca/binaries/small/content/gallery/common_en/tv/channel-logos/tsn_1_aug2014.png",
        "imgh": 250,
        "imgw": 192,
        "isHD": true,
        "language": 1,
        "lic": false,
        "link": "https://oreotv.website/live/usa/sports.m3u8?ch=yt21",
        "linkp": "abc",
        "live": false,
        "name": "TSN 1",
        "tok": "widevine",
        "tokj": "thoptv",
        "trigger": false,
        "z": false,
        "zee": false
    },
    {
        "age": "ExoPlayerDemo/2.10.5 (Linux;Android 5.0.1) ExoPlayerLib/2.10.5",
        "cardl": 300,
        "cardw": 350,
        "category": 5,
        "channel_id": 525,
        "drm": false,
        "hd": false,
        "icon": "https://www.fibreop.ca/binaries/small/content/gallery/common_en/tv/channel-logos/tsn_2_aug2014.png",
        "imgh": 250,
        "imgw": 192,
        "isHD": true,
        "language": 1,
        "lic": false,
        "link": "https://oreotv.website/live/usa/sports.m3u8?ch=yt22",
        "linkp": "abc",
        "live": false,
        "name": "TSN 2",
        "tok": "widevine",
        "tokj": "thoptv",
        "trigger": false,
        "z": false,
        "zee": false
    }
	],
	"title": "Welcome to array 2"
}]