[
 {
   "api": "https://bitbucket.org/oreotv/oreov1.6/raw/f284afbdefd7c12471f02131371756d9a6758bf7/movies/showhot.json",
        "icon": "https://media.glassdoor.com/sqll/1465942/hotstar-squarelogo-1497234030168.png",
        "name": "HOTSTAR Shows ",
        "fname": "2000+ @ 8 Languages",
        "sname": "Works only in India",
        "refresh": "HotNew",
        "direct_card": false
    },
    {
	"api": "https://bitbucket.org/oreotv/1.7.9/raw/dcbfcf4cec0affe46c12c68b0dfa9666682c813c/sunshineshows.json",
	"icon": "https://www.logolynx.com/images/logolynx/66/668f25e76b79cca2b4569ea5370ca42a.png",
	"name": "Sunshine Shows ",
	"fname": "500+ @ 5 Languages",
	"sname": "Works WorldWide",
	"refresh": "false",
	"direct_card": false
}

]